Data Wrangling Project
…
Experimenting with the API

If we want to find a list of all artists starting with a particular name we can utilize the APIs built-in search_artist() function. The function takes an argument search_term where we can pass the required artist name. A search for artist Jeremy was done and it provides us with a list of matching artists and their respective artist_id.

## # A tibble: 3 x 3
##   artist_id artist_name   artist_url                              
##       <int> <chr>         <chr>                                   
## 1       278 Jeremih       https://genius.com/artists/Jeremih      
## 2   1152503 Yung Bleu     https://genius.com/artists/Yung-bleu    
## 3    398381 Jeremy Zucker https://genius.com/artists/Jeremy-zucker

As we can see the artist_id for Jeremy Zucker is 398381. We can use that artist_id in another API function get_artist_songs_df(). This function takes an argument artist_id where we can pass the found ID and it gives us a list of songs by that artist along with their respective song_id.

## # A tibble: 69 x 7
##    song_id song_name song_lyrics_url annotation_count artist_id artist_name
##      <int> <chr>     <chr>                      <int>     <int> <chr>      
##  1 3290674 99.9      https://genius                1    398381 Jeremy Zuc
##  2 3629431 all the  https://genius                7    398381 Jeremy Zuc
##  3 5228815 always,  https://genius                1    398381 Jeremy Zuc
##  4 2301171 Beach Is https://genius                1    398381 Jeremy Zuc
##  5 4669180 be gent  https://genius                0    398381 Jeremy Zuc
##  6 2358694 Born For https://genius                1    398381 Jeremy Zuc
##  7 2380649 Bout It  https://genius                0    398381 Jeremy Zuc
##  8 3174411 Breathe   https://genius                0    398381 Jeremy Zuc
##  9 4574259 broken    https://genius                0    398381 Jeremy Zuc
## 10 5395146 brooks    https://genius                1    398381 Jeremy Zuc
## #  with 59 more rows, and 1 more variable: artist_url <chr>
…
